<?xml version="1.0" encoding="UTF-8" standalone="no"?>
<!-- Created with Inkscape (http://www.inkscape.org/) -->

<svg
   width="128"
   height="128"
   viewBox="0 0 33.866666 33.866666"
   version="1.1"
   id="svg309"
   xml:space="preserve"
   xmlns="http://www.w3.org/2000/svg"
   xmlns:svg="http://www.w3.org/2000/svg"><defs
     id="defs306" /><g
     id="layer1"><path
       style="fill:indianred;stroke-width:1"
       d="M 7.9757656,30.688601 C 6.9118959,30.575704 6.2200595,30.232507 5.9758394,29.696502 c -0.3456819,-0.75869 -0.095669,-1.469329 0.6531651,-1.856565 0.3186543,-0.164783 0.6695513,-0.187901 1.8109797,-0.119311 1.0501294,0.0631 2.4235878,-0.0063 5.3183478,-0.268754 5.121443,-0.464333 10.735597,-0.583043 13.49375,-0.285325 2.740932,0.29586 3.299683,0.494996 4.064939,1.448717 0.15238,0.189908 -0.110083,0.728425 -0.561887,1.152874 -0.453214,0.425771 -1.495919,0.529422 -3.635344,0.361372 -2.276881,-0.178847 -8.734147,-0.02874 -12.170833,0.282925 -3.53189,0.3203 -5.735072,0.407554 -6.9731914,0.276166 z M 16.007769,25.293293 C 15.735356,25.143161 15.268852,24.636883 14.87287,24.061635 14.447584,23.443816 13.839745,22.795854 13.218746,22.298324 11.712248,21.091353 9.6082891,18.934078 9.1475454,18.123957 8.5999649,17.161152 8.5790556,16.379062 9.0867289,15.849165 c 0.2752489,-0.287298 0.4767724,-0.371041 0.8928922,-0.371041 0.5160319,0 0.6058369,0.07051 2.2572809,1.772371 0.945927,0.974804 2.084866,2.044403 2.530974,2.376888 0.79826,0.594943 2.430039,2.263264 2.430039,2.484456 0,0.293427 0.306221,0.01273 1.305822,-1.196972 3.163422,-3.828328 6.881742,-6.358405 7.878999,-5.361148 0.630927,0.630927 -0.02267,1.722979 -2.348088,3.923251 -1.020638,0.965713 -2.504771,2.515158 -3.298074,3.443213 -1.77218,2.073209 -2.373124,2.520225 -3.472191,2.582811 -0.598968,0.03411 -0.90772,-0.01742 -1.256614,-0.209701 z m 0.953094,-5.486384 C 16.202132,18.999275 16.075632,17.690572 16.262456,12.58155 16.471117,6.8753715 16.591152,5.7528354 17.14423,4.3353997 17.392038,3.7003125 17.597162,3.105 17.600062,3.0124831 c 0.0029,-0.092517 0.110116,0.040147 0.238261,0.294808 0.128145,0.2546614 0.389249,0.7309114 0.580232,1.0583332 0.772996,1.3252311 0.832092,1.848357 0.807008,7.1437497 -0.02391,5.046767 -0.145758,6.83687 -0.515108,7.567389 -0.523333,1.035071 -1.198447,1.316812 -1.749592,0.730146 z"
       id="path2584" /></g></svg>
