<?xml version="1.0" encoding="UTF-8" standalone="no"?>
<!-- Created with Inkscape (http://www.inkscape.org/) -->

<svg
   width="128"
   height="128"
   viewBox="0 0 128 128"
   version="1.1"
   id="svg5"
   xml:space="preserve"
   xmlns="http://www.w3.org/2000/svg"
   xmlns:svg="http://www.w3.org/2000/svg"><defs
     id="defs2" /><g
     id="layer1"><path
       style="fill:red;stroke-width:0.255587"
       d="m 30.757183,111.2847 c -4.617219,-1.07073 -8.172893,-3.44851 -11.117649,-7.43467 -1.437215,-1.94549 -2.471925,-4.349869 -3.244948,-7.540362 -0.608292,-2.5106 -0.641201,-2.972106 -0.51032,-7.156442 0.197096,-6.301232 1.124776,-9.623994 4.210078,-15.079646 3.390443,-5.995223 7.279682,-9.911118 17.308107,-17.426724 5.12846,-3.843423 7.123285,-5.129451 10.849974,-6.994783 6.617841,-3.312451 11.616002,-4.799931 16.114478,-4.795757 8.258973,0.0077 14.648117,5.487473 13.319603,11.423895 -0.664289,2.968357 -2.762589,4.980978 -4.807097,4.610817 -0.769824,-0.13938 -1.416339,-0.621185 -3.099938,-2.310177 -2.560693,-2.568894 -3.504078,-2.962133 -6.291615,-2.622567 -5.945651,0.724273 -13.444565,4.422114 -20.882401,10.297463 -9.623666,7.601997 -12.578403,11.037534 -14.498982,16.858272 -2.038505,6.178144 -1.423102,11.929611 1.565346,14.629496 3.043732,2.749825 7.512383,3.451265 14.446485,2.267625 1.983022,-0.338501 3.016157,-0.39286 4.217189,-0.221895 l 1.590732,0.226435 0.07829,1.22353 c 0.214982,3.35986 -4.297377,8.1462 -9.098995,9.65149 -2.240679,0.70244 -7.874992,0.92119 -10.148336,0.394 z M 67.178362,83.226659 c -1.730006,-0.271418 -4.202232,-1.428845 -5.275696,-2.469931 -2.342181,-2.271539 -4.577529,-6.20245 -5.980554,-10.516956 -1.348639,-4.147263 -1.328647,-5.97567 0.08292,-7.58336 0.986736,-1.12383 2.088554,-1.61778 3.608657,-1.61778 2.882725,0 4.421697,1.638191 5.762582,6.134093 0.744295,2.495572 2.428467,5.732906 3.153276,6.061266 1.881874,0.852542 7.936876,-1.225658 12.484797,-4.285034 3.910027,-2.630269 6.846614,-5.520945 14.786764,-14.555593 5.074982,-5.774533 7.837922,-9.656785 10.546592,-14.819185 1.21014,-2.306383 1.26659,-2.502032 1.13631,-3.938701 -0.15195,-1.675827 -0.69943,-2.622977 -1.86276,-3.222615 -1.23351,-0.635819 -9.915681,-0.518985 -13.523136,0.181978 -5.687058,1.105047 -12.605705,1.961052 -14.477994,1.791278 -2.017899,-0.182977 -2.728996,-0.655305 -2.57422,-1.70986 0.148048,-1.008719 2.192327,-3.283693 4.125824,-4.59142 5.893598,-3.986158 10.976234,-5.496173 19.571658,-5.814602 7.577238,-0.280709 11.474498,0.775111 14.602948,3.95613 2.95184,3.001447 4.43806,7.898844 3.69389,12.172165 -0.84236,4.837192 -7.15788,14.954636 -14.69082,23.534655 -0.49367,0.562292 -1.62199,1.84982 -2.507389,2.861174 -2.585339,2.953147 -9.675083,9.873388 -11.066531,10.801949 -0.702865,0.469046 -1.565472,1.11586 -1.916904,1.437366 -0.351432,0.321506 -2.076646,1.331541 -3.833808,2.244524 -5.989712,3.112124 -11.857675,4.574247 -15.846408,3.948459 z"
       id="path302" /></g></svg>
