{
	"version": "1.0",
	"type": "video",
	"provider_name": "Joe Warren",
	"provider_url": "https://www.doscienceto.it",
	"width": 540,
	"height": 280,
    "thumbnail_width": 540,
    "thumbnail_height": 280,
	"title": "$title$",
    "thumbnail_url": "$oembed_thumbnail$",
	"author_name": "Joe Warren",
	"author_url": "https://www.doscienceto.it/",
	"html": "<iframe src=\"$oembed_html$\" height=\"540\" width=\"280\" title=\"$title$\"></iframe>"
}
